{
    "icons": [ "awesome-fonts" ],
    "colors": [{
        "fg": "#c0caf5",
        "bg": "#1a1b26",
        "red": "#f7768e",
        "green": "#9ec66a",
        "yellow": "#e0af68",
        "blue": "#7aa2f7",
        "magenta": "#bb9af7",
        "cyan": "#7dcfff",
		"orange": "#e0af68",
        "cycle1": "#7dcfff",
        "cycle2": "#c0caf5"
    }],
    "defaults": {
        "separator-block-width": 0,
        "warning": {
            "fg": "bg",
            "bg": "yellow"
        },
        "critical": {
            "fg": "bg",
            "bg": "red"
        }
    },
    "cycle": [
        { "fg": "bg", "bg": "blue"},
        { "fg": "bg", "bg": "cycle1"},
        { "fg": "bg", "bg": "cycle2"}
    ],
    "spacer": {
            "fg": "bg",
            "bg": "fg"
    },
    "git": {
        "main": {
            "fg": "bg",
            "bg": "red"
        },
        "new": {
            "fg": "bg",
            "bg": "blue"
        },
        "modified": {
            "fg": "bg",
            "bg": "magenta"
        },
        "deleted": {
            "fg": "bg",
            "bg": "red"
        }
    },
    "uptime": {
            "fg": "bg",
            "bg": "blue"
    },
    "layout": {
            "fg": "bg",
            "bg": "yellow"
    },
    "title": {
            "fg": "bg",
            "bg": "blue"
    },
    "nic": {
            "fg": "bg",
            "bg": "red"
    },
    "cpu": {
            "fg": "bg",
            "bg": "green"
    },
    "memory": {
            "fg": "bg",
            "bg": "red"
    },
    "dnf": {
        "good": {
            "fg": "green",
            "bg": "bg"
        }
    },
    "apt": {
        "good": {
            "fg": "bg",
            "bg": "green"
        },
        "warning": {
            "fg": "bg",
            "bg": "red"
        }
    },
    "pacman": {
        "good": {
            "fg": "green",
            "bg": "bg"
        }
    },
    "battery": {
        "charged": {
            "fg": "bg",
            "bg": "green"
        },
        "charging": {
            "fg": "bg",
            "bg": "blue"
        },
        "AC": {
            "fg": "bg",
            "bg": "green"
        }
    },
    "pomodoro": {
        "paused": {
            "fg": "bg",
            "bg": "red"
        },
        "work": {
            "fg": "bg",
            "bg": "yellow"
        },
        "break": {
            "fg": "green",
            "bg": "bg"
        }
    }

}
